…
This is a basic example which shows you how to solve a common problem:

We will OCR a page from an old cookbook retrieved from archive.org\[1\]
and enhanced using `magick` package (see image preparation script on
github).

``` r
cupcakes <- system.file("extdata", "peanutbutter.png", package="hocr")


recipe <- ocr(cupcakes, HOCR = TRUE) %>% 
  hocr_parse() %>% 
  tidy_tesseract()
recipe
#> # A tibble: 234 x 21
#>    ocrx_word_id ocrx_word_bbox ocrx_word_conf ocrx_word_tag ocrx_word_value
#>    <chr>        <chr>                   <dbl> <chr>         <chr>          
#>  1 word_1_1     38 58 271 103              85 strong        Chocolate      
#>  2 word_1_2     287 61 451 103             86 text          Peanut         
#>  3 word_1_3     468 62 619 103             89 text          Butter         
#>  4 word_1_4     636 60 852 113             84 strong        Cupcakes       
#>  5 word_1_5     36 153 112 182             87 strong        Your           
#>  6 word_1_6     123 152 184 1~             88 strong        kids           
#>  7 word_1_7     196 152 250 1~             88 strong        will           
#>  8 word_1_8     264 152 324 1~             85 strong        love           
#>  9 word_1_9     337 152 417 1~             84 strong        these          
#> 10 word_1_10    431 154 472 1~             90 text          (as            
#> # ... with 224 more rows, and 16 more variables: ocr_line_id <chr>,
#> #   ocr_line_bbox <chr>, ocr_line_xbaseline <dbl>,
#> #   ocr_line_ybaseline <dbl>, ocr_line_xsize <dbl>,
#> #   ocr_line_xdescenders <dbl>, ocr_line_xascenders <dbl>,
#> #   ocr_par_id <chr>, ocr_par_lang <chr>, ocr_par_bbox <chr>,
#> #   ocr_carea_id <chr>, ocr_carea_bbox <chr>, ocr_page_id <chr>,
#> #   ocr_page_image <chr>, ocr_page_bbox <chr>, ocr_page_no <dbl>
```
…
